Correction Confusion
…
Mean daily temperature vs.NOAA-CONUS bias correction.

snotel_426_adjusted

## # A tibble: 11,618 x 26
## # Groups:   waterYear [32]
##    network state site_name description      start end   latitude longitude  elev
##    <chr>   <chr> <chr>     <chr>            <chr> <chr>    <dbl>     <dbl> <int>
##  1 SNTL    CO    "crosho " Outlet Hunt Cre~ 1985~ 2023~     40.2     -107.  2735
##  2 SNTL    CO    "crosho " Outlet Hunt Cre~ 1985~ 2023~     40.2     -107.  2735
##  3 SNTL    CO    "crosho " Outlet Hunt Cre~ 1985~ 2023~     40.2     -107.  2735
##  4 SNTL    CO    "crosho " Outlet Hunt Cre~ 1985~ 2023~     40.2     -107.  2735
##  5 SNTL    CO    "crosho " Outlet Hunt Cre~ 1985~ 2023~     40.2     -107.  2735
##  6 SNTL    CO    "crosho " Outlet Hunt Cre~ 1985~ 2023~     40.2     -107.  2735
##  7 SNTL    CO    "crosho " Outlet Hunt Cre~ 1985~ 2023~     40.2     -107.  2735
##  8 SNTL    CO    "crosho " Outlet Hunt Cre~ 1985~ 2023~     40.2     -107.  2735
##  9 SNTL    CO    "crosho " Outlet Hunt Cre~ 1985~ 2023~     40.2     -107.  2735
## 10 SNTL    CO    "crosho " Outlet Hunt Cre~ 1985~ 2023~     40.2     -107.  2735
## # ... with 11,608 more rows, and 17 more variables: county <chr>,
## #   site_id <int>, date <chr>, snow_water_equivalent <dbl>,
## #   precipitation_cumulative <dbl>, temperature_max <dbl>,
## #   temperature_min <dbl>, temperature_mean <dbl>, precipitation <dbl>,
## #   Date <date>, waterYear <dbl>, daymonth <chr>, waterDay <int>,
## #   temp_diff <dbl>, morrisey <dbl>, noaa_conus <dbl>, noaa_morrisey <dbl>
…
